HW05: Factor and figure management
…
First I will write the new filtered data to disk.

write_csv(gapminder_Asia,here::here("gapminder_Asia_file.csv"))

Then, I will read the same data from the disk.

read_csv(here::here("gapminder_Asia_file.csv")) 

## Parsed with column specification:
## cols(
##   country = col_character(),
##   lifeExp = col_double()
## )

## # A tibble: 33 x 2
##    country          lifeExp
##    <chr>              <dbl>
##  1 Afghanistan           29
##  2 Bahrain               51
##  3 Bangladesh            37
##  4 Cambodia              39
##  5 China                 44
##  6 Hong Kong, China      61
##  7 India                 37
##  8 Indonesia             37
##  9 Iran                  45
## 10 Iraq                  45
## #  with 23 more rows
…
